{
        "page": 1,
        "pages": 59256,
        "perpage": 20,
        "total": "1185120",
        "photo": [
            {
                "id": "42733555385",
                "owner": "160658215@N07",
                "secret": "bf8259d436",
                "server": "857",
                "farm": 1,
                "title": "Watch high quality movies at http://ImovieSh.com/",
                "ispublic": 1,
                "isfriend": 0,
                "isfamily": 0,
                "url_q": "https://farm1.staticflickr.com/857/42733555385_bf8259d436_q.jpg",
                "height_q": "150",
                "width_q": "150"
            },
            {
                "id": "42920495604",
                "owner": "71674691@N03",
                "secret": "ab7fe6d1c6",
                "server": "915",
                "farm": 1,
                "title": "Hey cat!",
                "ispublic": 1,
                "isfriend": 0,
                "isfamily": 0,
                "url_q": "https://farm1.staticflickr.com/915/42920495604_ab7fe6d1c6_q.jpg",
                "height_q": "150",
                "width_q": "150"
            },
            {
                "id": "43636016461",
                "owner": "62813558@N02",
                "secret": "d80717f78e",
                "server": "841",
                "farm": 1,
                "title": "68016 'Fearless' and 88002 'Prometheus'",
                "ispublic": 1,
                "isfriend": 0,
                "isfamily": 0,
                "url_q": "https://farm1.staticflickr.com/841/43636016461_d80717f78e_q.jpg",
                "height_q": "150",
                "width_q": "150"
            },
            {
                "id": "28749110547",
                "owner": "141909205@N08",
                "secret": "3055c06d3a",
                "server": "931",
                "farm": 1,
                "title": "Chat room (french for cat) – I'd Like the Gourmet Hoppy Meal",
                "ispublic": 1,
                "isfriend": 0,
                "isfamily": 0,
                "url_q": "https://farm1.staticflickr.com/931/28749110547_3055c06d3a_q.jpg",
                "height_q": "150",
                "width_q": "150"
            },
            {
                "id": "43635505731",
                "owner": "38307297@N08",
                "secret": "082c10d423",
                "server": "836",
                "farm": 1,
                "title": "1489-38bwL",
                "ispublic": 1,
                "isfriend": 0,
                "isfamily": 0,
                "url_q": "https://farm1.staticflickr.com/836/43635505731_082c10d423_q.jpg",
                "height_q": "150",
                "width_q": "150"
            },
            {
                "id": "42919684234",
                "owner": "38307297@N08",
                "secret": "2b3dd36c36",
                "server": "920",
                "farm": 1,
                "title": "1489-38L",
                "ispublic": 1,
                "isfriend": 0,
                "isfamily": 0,
                "url_q": "https://farm1.staticflickr.com/920/42919684234_2b3dd36c36_q.jpg",
                "height_q": "150",
                "width_q": "150"
            },
            {
                "id": "43635588511",
                "owner": "160658215@N07",
                "secret": "78ee53aff5",
                "server": "846",
                "farm": 1,
                "title": "Watch high quality movies at http://ImovieSh.com/",
                "ispublic": 1,
                "isfriend": 0,
                "isfamily": 0,
                "url_q": "https://farm1.staticflickr.com/846/43635588511_78ee53aff5_q.jpg",
                "height_q": "150",
                "width_q": "150"
            },
            {
                "id": "43589032112",
                "owner": "154605377@N08",
                "secret": "65b6db7930",
                "server": "927",
                "farm": 1,
                "title": "Red Persian Kitten",
                "ispublic": 1,
                "isfriend": 0,
                "isfamily": 0,
                "url_q": "https://farm1.staticflickr.com/927/43589032112_65b6db7930_q.jpg",
                "height_q": "150",
                "width_q": "150"
            },
            {
                "id": "41828087560",
                "owner": "160658215@N07",
                "secret": "96c59d15e4",
                "server": "835",
                "farm": 1,
                "title": "Watch high quality movies at http://ImovieSh.com/",
                "ispublic": 1,
                "isfriend": 0,
                "isfamily": 0,
                "url_q": "https://farm1.staticflickr.com/835/41828087560_96c59d15e4_q.jpg",
                "height_q": "150",
                "width_q": "150"
            },
            {
                "id": "29765564548",
                "owner": "41929660@N07",
                "secret": "ffe39b0fa8",
                "server": "936",
                "farm": 1,
                "title": "Cats of York",
                "ispublic": 1,
                "isfriend": 0,
                "isfamily": 0,
                "url_q": "https://farm1.staticflickr.com/936/29765564548_ffe39b0fa8_q.jpg",
                "height_q": "150",
                "width_q": "150"
            },
            {
                "id": "43634661321",
                "owner": "150689779@N08",
                "secret": "30635a6d71",
                "server": "937",
                "farm": 1,
                "title": "Dude, you crack me up",
                "ispublic": 1,
                "isfriend": 0,
                "isfamily": 0,
                "url_q": "https://farm1.staticflickr.com/937/43634661321_30635a6d71_q.jpg",
                "height_q": "150",
                "width_q": "150"
            },
            {
                "id": "43634501131",
                "owner": "151955874@N08",
                "secret": "6ae9fbb79b",
                "server": "929",
                "farm": 1,
                "title": "*I must lose weight*.                                    Also me:",
                "ispublic": 1,
                "isfriend": 0,
                "isfamily": 0,
                "url_q": "https://farm1.staticflickr.com/929/43634501131_6ae9fbb79b_q.jpg",
                "height_q": "150",
                "width_q": "150"
            },
            {
                "id": "43587777662",
                "owner": "147562519@N02",
                "secret": "509e77cc4a",
                "server": "858",
                "farm": 1,
                "title": "Gros étirement ...",
                "ispublic": 1,
                "isfriend": 0,
                "isfamily": 0,
                "url_q": "https://farm1.staticflickr.com/858/43587777662_509e77cc4a_q.jpg",
                "height_q": "150",
                "width_q": "150"
            },
            {
                "id": "43633918191",
                "owner": "8207725@N02",
                "secret": "e3ce7fb954",
                "server": "933",
                "farm": 1,
                "title": "Tabby",
                "ispublic": 1,
                "isfriend": 0,
                "isfamily": 0,
                "url_q": "https://farm1.staticflickr.com/933/43633918191_e3ce7fb954_q.jpg",
                "height_q": "150",
                "width_q": "150"
            },
            {
                "id": "29764365878",
                "owner": "160658215@N07",
                "secret": "d7e3699f57",
                "server": "925",
                "farm": 1,
                "title": "Watch high quality movies at http://ImovieSh.com/",
                "ispublic": 1,
                "isfriend": 0,
                "isfamily": 0,
                "url_q": "https://farm1.staticflickr.com/925/29764365878_d7e3699f57_q.jpg",
                "height_q": "150",
                "width_q": "150"
            },
            {
                "id": "42730207185",
                "owner": "24802325@N07",
                "secret": "457d773bd0",
                "server": "861",
                "farm": 1,
                "title": "",
                "ispublic": 1,
                "isfriend": 0,
                "isfamily": 0,
                "url_q": "https://farm1.staticflickr.com/861/42730207185_457d773bd0_q.jpg",
                "height_q": "150",
                "width_q": "150"
            },
            {
                "id": "29763930498",
                "owner": "146626464@N02",
                "secret": "d5759ce2dc",
                "server": "844",
                "farm": 1,
                "title": "CATS: Crash Arena Turbo Stars Hack Updates July 25, 2018 at 09:58PM",
                "ispublic": 1,
                "isfriend": 0,
                "isfamily": 0,
                "url_q": "https://farm1.staticflickr.com/844/29763930498_d5759ce2dc_q.jpg",
                "height_q": "150",
                "width_q": "150"
            },
            {
                "id": "43633144151",
                "owner": "143593649@N02",
                "secret": "4fff1c1679",
                "server": "938",
                "farm": 1,
                "title": "2:43, Time for another cup of tea!",
                "ispublic": 1,
                "isfriend": 0,
                "isfamily": 0,
                "url_q": "https://farm1.staticflickr.com/938/43633144151_4fff1c1679_q.jpg",
                "height_q": "150",
                "width_q": "150"
            },
            {
                "id": "29763897858",
                "owner": "141090226@N06",
                "secret": "1c7f9cec17",
                "server": "942",
                "farm": 1,
                "title": "Welcome to Roosevelt Veterinary Center",
                "ispublic": 1,
                "isfriend": 0,
                "isfamily": 0,
                "url_q": "https://farm1.staticflickr.com/942/29763897858_1c7f9cec17_q.jpg",
                "height_q": "150",
                "width_q": "150"
            },
            {
                "id": "42729424105",
                "owner": "160658215@N07",
                "secret": "53b6c5fa5a",
                "server": "916",
                "farm": 1,
                "title": "Watch high quality movies at http://ImovieSh.com/",
                "ispublic": 1,
                "isfriend": 0,
                "isfamily": 0,
                "url_q": "https://farm1.staticflickr.com/916/42729424105_53b6c5fa5a_q.jpg",
                "height_q": "150",
                "width_q": "150"
            }
        ]
    "stat": "ok"
}